[
  {
    "outputFileName": "Scripts/client.min.js",
    "inputFiles": [
      "Scripts/client.js"
    ]
  },
  {
    "outputFileName": "Content/css/site.min.css",
    "inputFiles": [
      "Content/css/site.css"
    ]
  }
]
